Introduction to sfhotspot
…
The hotspot_count() produces an SF object with counts
for the number of points in (by default) each cell in a grid of cells.
As with all the functions in the package, this can be customised in
various ways – see Common arguments, below.

point_counts <- hotspot_count(memphis_robberies)
#> Cell size set to 0.00524 degrees automatically

point_counts
#> Simple feature collection with 2926 features and 1 field
#> Geometry type: POLYGON
#> Dimension:     XY
#> Bounding box:  xmin: -90.1261 ymin: 34.99475 xmax: -89.72786 ymax: 35.26199
#> Geodetic CRS:  WGS 84
#> # A tibble: 2,926 × 2
#>        n                                                                geometry
#>  * <dbl>                                                           <POLYGON [°]>
#>  1     0 ((-90.08418 34.99475, -90.07894 34.99475, -90.07894 34.99999, -90.0841…
#>  2     0 ((-90.07894 34.99475, -90.0737 34.99475, -90.0737 34.99999, -90.07894 …
#>  3     0 ((-90.0737 34.99475, -90.06846 34.99475, -90.06846 34.99999, -90.0737 …
#>  4     0 ((-90.06846 34.99475, -90.06322 34.99475, -90.06322 34.99999, -90.0684…
#>  5     0 ((-90.06322 34.99475, -90.05798 34.99475, -90.05798 34.99999, -90.0632…
#>  6     0 ((-90.05798 34.99475, -90.05274 34.99475, -90.05274 34.99999, -90.0579…
#>  7     0 ((-90.05274 34.99475, -90.0475 34.99475, -90.0475 34.99999, -90.05274 …
#>  8     0 ((-90.0475 34.99475, -90.04226 34.99475, -90.04226 34.99999, -90.0475 …
#>  9     0 ((-90.04226 34.99475, -90.03702 34.99475, -90.03702 34.99999, -90.0422…
#> 10     0 ((-90.03702 34.99475, -90.03178 34.99475, -90.03178 34.99999, -90.0370…
#> # … with 2,916 more rows
…
robbery_kde <- memphis_robberies |> 
  st_transform("EPSG:2843") |> 
  hotspot_kde()

robbery_kde

#> Simple feature collection with 3301 features and 2 fields
#> Geometry type: POLYGON
#> Dimension:     XY
#> Bounding box:  xmin: 223497.9 ymin: 80772.86 xmax: 260497.9 ymax: 110272.9
#> Projected CRS: NAD83(HARN) / Tennessee
#> # A tibble: 3,301 × 3
#>        n   kde                                                          geometry
#>  * <dbl> <dbl>                                                     <POLYGON [m]>
#>  1     0  20.7 ((229497.9 80772.86, 229497.9 81272.86, 229997.9 81272.86, 22999…
#>  2     0  25.1 ((229997.9 80772.86, 229997.9 81272.86, 230497.9 81272.86, 23049…
#>  3     0  30.2 ((230497.9 80772.86, 230497.9 81272.86, 230997.9 81272.86, 23099…
#>  4     0  35.6 ((230997.9 80772.86, 230997.9 81272.86, 231497.9 81272.86, 23149…
#>  5     0  40.7 ((231497.9 80772.86, 231497.9 81272.86, 231997.9 81272.86, 23199…
#>  6     0  45.2 ((231997.9 80772.86, 231997.9 81272.86, 232497.9 81272.86, 23249…
#>  7     0  48.4 ((232497.9 80772.86, 232497.9 81272.86, 232997.9 81272.86, 23299…
#>  8     0  50.1 ((232997.9 80772.86, 232997.9 81272.86, 233497.9 81272.86, 23349…
#>  9     0  50.2 ((233497.9 80772.86, 233497.9 81272.86, 233997.9 81272.86, 23399…
#> 10     1  48.6 ((233997.9 80772.86, 233997.9 81272.86, 234497.9 81272.86, 23449…
#> # … with 3,291 more rows
…
